<svg xmlns="http://www.w3.org/2000/svg" viewBox="0 0 18.445 20">
  <defs>
    <style>
      .cls-1 {
        fill: #ccc;
      }
    </style>
  </defs>
  <g id="noun_undefined_259875_000000" transform="translate(-14.487 -104)">
    <path id="Path_191" data-name="Path 191" class="cls-1" d="M26.743,57.406h0c-.733-4.33-5.929-5.751-6.617-5.906a4,4,0,0,1-4.929,0c-.688.155-5.773,1.554-6.506,5.906h0c-.377,1.821-.266,3.375.666,3.686a4.781,4.781,0,0,0,2.443-.355c.022,0,.022,0,.044-.022h.022a1.48,1.48,0,0,0,1.021-1.4v-.067a1.476,1.476,0,0,0-.755-1.288,5.848,5.848,0,0,1,5.573-3.952,5.961,5.961,0,0,1,5.6,3.975,1.5,1.5,0,0,0-.755,1.288v.067a1.507,1.507,0,0,0,1.044,1.421h0a5.012,5.012,0,0,0,2.42.355C26.965,60.826,27.12,59.227,26.743,57.406Z" transform="translate(6 62.825)"/>
    <ellipse id="Ellipse_9" data-name="Ellipse 9" class="cls-1" cx="4.818" cy="5.063" rx="4.818" ry="5.063" transform="translate(18.909 104)"/>
    <path id="Path_192" data-name="Path 192" class="cls-1" d="M56.511,78.5a1.719,1.719,0,0,1,.244.888A1.692,1.692,0,0,1,56.4,80.43a18.163,18.163,0,0,0,3.109-.422,5.866,5.866,0,0,0,.044-.644,4.624,4.624,0,0,0-1-2.864Z" transform="translate(-31.274 43.376)"/>
    <path id="Path_193" data-name="Path 193" class="cls-1" d="M32.442,78.576,30.421,76.6A4.468,4.468,0,0,0,29.4,79.464a5.866,5.866,0,0,0,.044.644,18.369,18.369,0,0,0,3.109.4,1.741,1.741,0,0,1-.355-1.044A1.661,1.661,0,0,1,32.442,78.576Z" transform="translate(-10.269 43.299)"/>
    <path id="Path_194" data-name="Path 194" class="cls-1" d="M46.888,85.5a.888.888,0,1,0,.888.888A.891.891,0,0,0,46.888,85.5Z" transform="translate(-23.183 36.375)"/>
    <path id="Path_195" data-name="Path 195" class="cls-1" d="M39.653,68.9A4.48,4.48,0,0,0,36.7,69.988l2.043,1.976a1.8,1.8,0,0,1,.91-.244,1.693,1.693,0,0,1,.933.266l2.043-1.976A4.6,4.6,0,0,0,39.653,68.9Z" transform="translate(-15.948 49.289)"/>
  </g>
</svg>
