<svg xmlns="http://www.w3.org/2000/svg" viewBox="0 0 14.188 13.301">
  <defs>
    <style>
      .cls-1 {
        fill: #2196f3;
      }
    </style>
  </defs>
  <g id="noun_undefined_21826_000000" transform="translate(0.094 -3)">
    <path id="Path_200" data-name="Path 200" class="cls-1" d="M26.019,7.617H23.607V3H18.771V7.617h-2.21l4.769,4.635Z" transform="translate(-14.294)"/>
    <path id="Path_201" data-name="Path 201" class="cls-1" d="M11.729,64.2v2.313H2.271V64.2H-.094v4.626H14.094V64.2Z" transform="translate(0 -52.525)"/>
  </g>
</svg>
