<svg xmlns="http://www.w3.org/2000/svg" xmlns:xlink="http://www.w3.org/1999/xlink" viewBox="0 0 16.301 18.63">
  <defs>
    <style>
      .cls-1 {
        fill: #fff;
      }

      .cls-2 {
        clip-path: url(#clip-path);
      }
    </style>
    <clipPath id="clip-path">
      <path id="Path_239" data-name="Path 239" class="cls-1" d="M0-63.856H16.3v18.629H0Z" transform="translate(0 63.856)"/>
    </clipPath>
  </defs>
  <g id="Group_735" data-name="Group 735" transform="translate(0 63.856)">
    <g id="Group_636" data-name="Group 636" class="cls-2" transform="translate(0 -63.856)">
      <g id="Group_635" data-name="Group 635" transform="translate(0 0)">
        <path id="Path_238" data-name="Path 238" class="cls-1" d="M-39.574-29.68v3.742c0,1.466-3.651,2.662-8.15,2.662s-8.151-1.2-8.151-2.662V-29.68c1.751,1.206,4.956,1.767,8.151,1.767s6.4-.562,8.15-1.767m0-5.822v3.742c0,1.466-3.651,2.662-8.15,2.662s-8.151-1.2-8.151-2.662V-35.5c1.751,1.206,4.956,1.767,8.151,1.767s6.4-.561,8.15-1.767m0-3.742v1.663c0,1.466-3.651,2.661-8.15,2.661s-8.151-1.2-8.151-2.661v-1.663c0-1.466,3.651-2.661,8.151-2.661s8.15,1.2,8.15,2.661" transform="translate(55.875 41.906)"/>
      </g>
    </g>
  </g>
</svg>
