<svg xmlns="http://www.w3.org/2000/svg" viewBox="0 0 20 17.419">
  <defs>
    <style>
      .cls-1 {
        fill: #fff;
      }
    </style>
  </defs>
  <g id="Group_1036" data-name="Group 1036" transform="translate(-5 -12.9)">
    <path id="Path_189" data-name="Path 189" class="cls-1" d="M14.321,44.7H6.157A1.218,1.218,0,0,0,5,45.944v5.611a1.2,1.2,0,0,0,1.157,1.221H7.425l-.156,1.878,3-1.878h4.049a1.2,1.2,0,0,0,1.157-1.221V45.944A1.189,1.189,0,0,0,14.321,44.7Z" transform="translate(0 -24.335)"/>
    <path id="Path_190" data-name="Path 190" class="cls-1" d="M35.982,12.9H23.724A2.09,2.09,0,0,0,21.7,15.036v4.226h5.606a2.271,2.271,0,0,1,2.2,2.324v3.991h.222L34.6,28.628l-.245-3.052h1.6a2.09,2.09,0,0,0,2.024-2.136v-8.4A2.058,2.058,0,0,0,35.982,12.9Z" transform="translate(-12.985)"/>
  </g>
</svg>
