<svg xmlns="http://www.w3.org/2000/svg" viewBox="0 0 10 5.968">
  <defs>
    <style>
      .cls-1 {
        fill: #868686;
        fill-rule: evenodd;
      }
    </style>
  </defs>
  <g id="Chevron_down" data-name="Chevron down" transform="translate(2536 -1900)">
    <path id="Chevron_down-2" data-name="Chevron down" class="cls-1" d="M9.665,1.825,5.843,5.645a1.06,1.06,0,0,1-.863.3,1.063,1.063,0,0,1-.864-.3L.3,1.825A1.081,1.081,0,0,1,1.825.3L4.981,3.452,8.136.3A1.081,1.081,0,0,1,9.665,1.825Z" transform="translate(-2535.98 1900.021)"/>
  </g>
</svg>
