<svg xmlns="http://www.w3.org/2000/svg" xmlns:xlink="http://www.w3.org/1999/xlink" viewBox="0 0 21.857 17">
  <defs>
    <style>
      .cls-1 {
        fill: #afafaf;
        opacity: 0.21;
      }

      .cls-2 {
        clip-path: url(#clip-path);
      }

      .cls-3 {
        fill: #aeaeae;
      }
    </style>
    <clipPath id="clip-path">
      <path id="Path_237" data-name="Path 237" class="cls-1" d="M0-476H21.857v17H0Z" transform="translate(0 476)"/>
    </clipPath>
  </defs>
  <g id="Group_734" data-name="Group 734" transform="translate(0 473)">
    <g id="Group_632" data-name="Group 632" class="cls-2" transform="translate(0 -473)">
      <g id="Group_631" data-name="Group 631" transform="translate(0 0)">
        <path id="Path_236" data-name="Path 236" class="cls-3" d="M-68.748-373.143a2.432,2.432,0,0,1,2.311-1.677h.311a3.93,3.93,0,0,0,1.51.3,3.916,3.916,0,0,0,1.51-.3h.311a2.432,2.432,0,0,1,2.311,1.677.6.6,0,0,1-.592.751h-7.081a.6.6,0,0,1-.592-.751m4.132-7.749a2.431,2.431,0,0,1,2.429,2.429,2.431,2.431,0,0,1-2.429,2.429,2.431,2.431,0,0,1-2.429-2.429,2.431,2.431,0,0,1,2.429-2.429m6.679,5.161a.3.3,0,0,1,.3-.3h5.464a.3.3,0,0,1,.3.3v.607a.3.3,0,0,1-.3.3h-5.464a.3.3,0,0,1-.3-.3Zm0-2.429a.3.3,0,0,1,.3-.3h5.464a.3.3,0,0,1,.3.3v.607a.3.3,0,0,1-.3.3h-5.464a.3.3,0,0,1-.3-.3Zm0-2.429a.3.3,0,0,1,.3-.3h5.464a.3.3,0,0,1,.3.3v.607a.3.3,0,0,1-.3.3h-5.464a.3.3,0,0,1-.3-.3Zm-13.357,8.8a1.822,1.822,0,0,0,1.821,1.821h18.214a1.822,1.822,0,0,0,1.821-1.821V-383.32H-71.294Zm20.036-15.179H-69.473a1.822,1.822,0,0,0-1.821,1.821v.607h21.857v-.607a1.822,1.822,0,0,0-1.821-1.821" transform="translate(71.294 386.963)"/>
      </g>
    </g>
  </g>
</svg>
